<?xml version="1.0" encoding="UTF-8" standalone="no"?>
<!-- Generator: Adobe Illustrator 16.0.0, SVG Export Plug-In . SVG Version: 6.00 Build 0)  -->

<svg
   xmlns:dc="http://purl.org/dc/elements/1.1/"
   xmlns:cc="http://creativecommons.org/ns#"
   xmlns:rdf="http://www.w3.org/1999/02/22-rdf-syntax-ns#"
   xmlns:svg="http://www.w3.org/2000/svg"
   xmlns="http://www.w3.org/2000/svg"
   xmlns:sodipodi="http://sodipodi.sourceforge.net/DTD/sodipodi-0.dtd"
   xmlns:inkscape="http://www.inkscape.org/namespaces/inkscape"
   version="1.1"
   x="0px"
   y="0px"
   width="25.089001"
   height="29.396"
   viewBox="0 0 25.089001 29.396"
   enable-background="new 0 0 35 420"
   xml:space="preserve"
   id="svg2"
   inkscape:version="0.92.4 (5da689c313, 2019-01-14)"
   sodipodi:docname="simu.svg"><metadata
     id="metadata545"><rdf:RDF><cc:Work
         rdf:about=""><dc:format>image/svg+xml</dc:format><dc:type
           rdf:resource="http://purl.org/dc/dcmitype/StillImage" /><dc:title></dc:title></cc:Work></rdf:RDF></metadata><defs
     id="defs543" /><sodipodi:namedview
     pagecolor="#ffffff"
     bordercolor="#666666"
     borderopacity="1"
     objecttolerance="10"
     gridtolerance="10"
     guidetolerance="10"
     inkscape:pageopacity="0"
     inkscape:pageshadow="2"
     inkscape:window-width="1920"
     inkscape:window-height="1017"
     id="namedview541"
     showgrid="false"
     inkscape:zoom="6.3572268"
     inkscape:cx="-41.682028"
     inkscape:cy="2.2296112"
     inkscape:window-x="1912"
     inkscape:window-y="-8"
     inkscape:window-maximized="1"
     inkscape:current-layer="blocks"
     fit-margin-top="0"
     fit-margin-left="0"
     fit-margin-right="0"
     fit-margin-bottom="0" /><g
     id="content"
     transform="translate(-3.411,-319.302)"><g
       id="blocks"><g
         id="Fondamental" /><path
         style="fill:#6288b8;stroke:#6288b8;stroke-miterlimit:10;stroke-opacity:1;fill-opacity:1"
         inkscape:connector-curvature="0"
         id="path418"
         d="m 21.065,324.961 c 1.42,0 2.579,-1.158 2.579,-2.579 0,-1.42 -1.159,-2.58 -2.579,-2.58 -1.42,0 -2.581,1.159 -2.581,2.579 0,1.421 1.159,2.58 2.581,2.58 z"
         stroke-miterlimit="10" /><path
         style="fill:#6288b8;stroke:#6288b8;stroke-miterlimit:10;stroke-opacity:1;fill-opacity:1"
         inkscape:connector-curvature="0"
         id="path420"
         d="m 6.489,337.38 c 1.421,0 2.58,-1.158 2.58,-2.577 0,-1.421 -1.158,-2.581 -2.58,-2.581 -1.42,0 -2.578,1.159 -2.578,2.581 10e-4,1.42 1.159,2.577 2.578,2.577 z"
         stroke-miterlimit="10" /><path
         style="fill:#6288b8;stroke:#6288b8;stroke-miterlimit:10;stroke-opacity:1;fill-opacity:1"
         inkscape:connector-curvature="0"
         id="path422"
         d="m 25.422,339.333 c 1.419,0 2.578,-1.157 2.578,-2.577 0,-1.421 -1.159,-2.58 -2.578,-2.58 -1.422,0 -2.581,1.159 -2.581,2.58 10e-4,1.42 1.159,2.577 2.581,2.577 z"
         stroke-miterlimit="10" /><path
         style="fill:#6288b8;stroke:#6288b8;stroke-miterlimit:10;stroke-opacity:1;fill-opacity:1"
         inkscape:connector-curvature="0"
         id="path424"
         d="m 18.811,348.198 c 1.42,0 2.579,-1.159 2.579,-2.579 0,-1.421 -1.159,-2.578 -2.579,-2.578 -1.419,0 -2.579,1.157 -2.579,2.578 0,1.42 1.157,2.579 2.579,2.579 z"
         stroke-miterlimit="10" /><path
         style="fill:#6288b8;stroke:#6288b8;stroke-miterlimit:10;stroke-opacity:1;fill-opacity:1"
         inkscape:connector-curvature="0"
         id="path426"
         d="m 17.358,336.129 c 1.724,0 3.13,-1.407 3.13,-3.13 0,-1.722 -1.406,-3.13 -3.13,-3.13 -1.724,0 -3.13,1.408 -3.13,3.13 0,1.723 1.406,3.13 3.13,3.13 z"
         stroke-miterlimit="10" /><line
         style="fill:#6288b8;stroke:#6288b8;stroke-width:0.96210003;stroke-miterlimit:2.61310005;stroke-opacity:1;fill-opacity:1"
         id="line428"
         y2="332.772"
         x2="17.632999"
         y1="324.259"
         x1="20.639"
         stroke-miterlimit="2.6131" /><line
         style="fill:#6288b8;stroke:#6288b8;stroke-width:0.96179998;stroke-miterlimit:2.61310005;stroke-opacity:1;fill-opacity:1"
         id="line430"
         y2="332.87399"
         x2="17.521"
         y1="336.89999"
         x1="25.601"
         stroke-miterlimit="2.6131" /><line
         style="fill:#6288b8;stroke:#6288b8;stroke-width:1.00030005;stroke-miterlimit:2.61310005;stroke-opacity:1;fill-opacity:1"
         id="line432"
         y2="333.013"
         x2="17.791"
         y1="344.242"
         x1="18.290001"
         stroke-miterlimit="2.6131" /><line
         style="fill:#6288b8;stroke:#6288b8;stroke-width:0.96210003;stroke-miterlimit:2.61310005;stroke-opacity:1;fill-opacity:1"
         id="line434"
         y2="332.68799"
         x2="17.479"
         y1="334.74799"
         x1="8.6879997"
         stroke-miterlimit="2.6131" /></g></g></svg>