<?xml version="1.0" encoding="UTF-8" standalone="no"?>
<!-- Generator: Adobe Illustrator 16.0.0, SVG Export Plug-In . SVG Version: 6.00 Build 0)  -->

<svg
   xmlns:dc="http://purl.org/dc/elements/1.1/"
   xmlns:cc="http://creativecommons.org/ns#"
   xmlns:rdf="http://www.w3.org/1999/02/22-rdf-syntax-ns#"
   xmlns:svg="http://www.w3.org/2000/svg"
   xmlns="http://www.w3.org/2000/svg"
   xmlns:sodipodi="http://sodipodi.sourceforge.net/DTD/sodipodi-0.dtd"
   xmlns:inkscape="http://www.inkscape.org/namespaces/inkscape"
   version="1.1"
   x="0px"
   y="0px"
   width="13.141507"
   height="24.992428"
   viewBox="0 0 13.141507 24.992428"
   enable-background="new 0 0 35 420"
   xml:space="preserve"
   id="svg2"
   inkscape:version="0.92.4 (5da689c313, 2019-01-14)"
   sodipodi:docname="syntax.svg"><metadata
     id="metadata545"><rdf:RDF><cc:Work
         rdf:about=""><dc:format>image/svg+xml</dc:format><dc:type
           rdf:resource="http://purl.org/dc/dcmitype/StillImage" /><dc:title></dc:title></cc:Work></rdf:RDF></metadata><defs
     id="defs543" /><sodipodi:namedview
     pagecolor="#ffffff"
     bordercolor="#666666"
     borderopacity="1"
     objecttolerance="10"
     gridtolerance="10"
     guidetolerance="10"
     inkscape:pageopacity="0"
     inkscape:pageshadow="2"
     inkscape:window-width="1920"
     inkscape:window-height="1017"
     id="namedview541"
     showgrid="false"
     inkscape:zoom="1.5893067"
     inkscape:cx="-58.95278"
     inkscape:cy="165.74681"
     inkscape:window-x="1912"
     inkscape:window-y="-8"
     inkscape:window-maximized="1"
     inkscape:current-layer="blocks"
     fit-margin-top="0"
     fit-margin-left="0"
     fit-margin-right="0"
     fit-margin-bottom="0" /><g
     id="content"
     transform="translate(-12.656073,-394.00633)"><g
       id="blocks"><g
         id="Fondamental" /><g
         id="background"><rect
           x="3.221"
           y="391.492"
           width="30.000999"
           height="30.000999"
           id="rect444"
           style="fill:none" /></g><path
         style="fill:#6288b8;fill-opacity:1;stroke-width:1.05439639"
         inkscape:connector-curvature="0"
         id="path447"
         d="m 25.796446,406.50223 c -0.0058,-0.19232 -0.02335,-1.16437 -0.837262,-2.33732 -0.794056,-1.17484 -2.505949,-2.43728 -5.202237,-2.96567 -1.682699,-0.36369 -2.162636,-0.88732 -2.461575,-1.27481 -0.13896,-0.19803 -0.206688,-0.38178 -0.235881,-0.49888 -0.01168,-0.0438 -0.01635,-0.0771 -0.01985,-0.0971 0.08057,-1.12058 0.429725,-1.19294 0.97739,-1.49379 0.284926,-0.11805 0.630574,-0.19231 0.887475,-0.22564 0.124947,-0.0181 0.232378,-0.0257 0.289597,-0.0295 0.01635,-9.5e-4 0.03036,-0.002 0.03853,-0.002 1.410618,0.0609 1.495862,0.34465 1.866033,0.79879 0.145966,0.23135 0.237049,0.51411 0.279087,0.72166 0.01985,0.10473 0.03153,0.18946 0.0362,0.23897 0.0023,0.0238 0.0023,0.04 0.0023,0.0457 l 0.707645,-0.02 h 3.671343 c -0.01168,-0.14852 0.01518,-1.26053 -0.778876,-2.5839 -0.721657,-1.33288 -2.825907,-2.83333 -5.789606,-2.7705 -0.183333,0.01 -1.547242,-0.0133 -3.169219,0.63312 -1.634822,0.58933 -3.473997,2.304 -3.399262,4.72128 0.0035,0.19232 0.02336,1.16533 0.834927,2.33636 0.234714,0.3456 0.558175,0.69691 0.952868,1.0368 -0.444905,0.38082 -0.795224,0.78831 -1.011254,1.18436 -0.791721,1.32337 -0.767199,2.43538 -0.777709,2.5839 0.0035,0.19137 0.02336,1.16437 0.836095,2.33636 0.796392,1.1739 2.507116,2.43633 5.199902,2.96377 1.685034,0.36464 2.164971,0.88828 2.462742,1.27481 0.13896,0.19899 0.206689,0.38464 0.238217,0.49984 0.01051,0.04 0.01752,0.0723 0.01868,0.0942 -0.07707,1.12629 -0.427389,1.19674 -0.976222,1.4995 -0.286094,0.11901 -0.63291,0.19136 -0.886307,0.22373 -0.128451,0.019 -0.232379,0.0267 -0.293101,0.0295 -0.02335,9.5e-4 -0.04087,0.002 -0.05021,0.003 -1.396605,-0.0647 -1.483017,-0.34655 -1.854355,-0.79878 -0.144799,-0.23135 -0.235882,-0.51411 -0.276752,-0.72356 -0.02335,-0.10283 -0.03153,-0.18946 -0.0362,-0.23707 -0.0035,-0.0229 -0.0035,-0.0362 -0.0035,-0.0438 v -0.004 l -0.729831,0.0209 h -3.649157 c 0.01168,0.14661 -0.01401,1.25957 0.777709,2.58389 0.708812,1.30528 2.74183,2.77241 5.613278,2.77241 0.05955,0 0.11794,-9.5e-4 0.17983,-0.002 0.183334,-0.01 1.547242,0.0133 3.166884,-0.63407 1.634822,-0.58837 3.4775,-2.30494 3.40043,-4.72032 -0.0047,-0.19423 -0.02336,-1.16723 -0.83376,-2.33827 -0.234713,-0.3456 -0.558175,-0.69691 -0.952867,-1.0368 0.444905,-0.38082 0.795224,-0.7883 1.008918,-1.18436 0.794057,-1.32146 0.766031,-2.43157 0.778876,-2.58104 z m -8.498739,0.56552 c -0.142463,-0.19898 -0.206688,-0.38177 -0.239384,-0.49983 -0.01051,-0.04 -0.01635,-0.0714 -0.01985,-0.0933 0.01401,-0.1609 0.110935,-0.69215 0.370171,-1.04537 0.332803,-0.36654 0.470595,-0.61693 1.564758,-0.69595 1.449153,0.35988 1.902232,0.84162 2.183655,1.20435 0.13896,0.20089 0.207856,0.38273 0.238217,0.50079 0.01051,0.0419 0.01868,0.0752 0.01985,0.0942 -0.01635,0.16566 -0.109766,0.6912 -0.369002,1.04346 -0.333971,0.3675 -0.472931,0.61789 -1.571765,0.69501 -1.44565,-0.35893 -1.896393,-0.84162 -2.176649,-1.20341 z" /></g></g></svg>