<?xml version="1.0" encoding="UTF-8" standalone="no"?>
<!-- Generator: Adobe Illustrator 17.1.0, SVG Export Plug-In . SVG Version: 6.00 Build 0)  -->

<svg
   xmlns:dc="http://purl.org/dc/elements/1.1/"
   xmlns:cc="http://creativecommons.org/ns#"
   xmlns:rdf="http://www.w3.org/1999/02/22-rdf-syntax-ns#"
   xmlns:svg="http://www.w3.org/2000/svg"
   xmlns="http://www.w3.org/2000/svg"
   xmlns:sodipodi="http://sodipodi.sourceforge.net/DTD/sodipodi-0.dtd"
   xmlns:inkscape="http://www.inkscape.org/namespaces/inkscape"
   version="1.1"
   id="Capa_1"
   x="0px"
   y="0px"
   viewBox="0 0 231 231"
   xml:space="preserve"
   sodipodi:docname="sld.svg"
   inkscape:version="0.92.4 (5da689c313, 2019-01-14)"
   width="231"
   height="231"><metadata
   id="metadata39"><rdf:RDF><cc:Work
       rdf:about=""><dc:format>image/svg+xml</dc:format><dc:type
         rdf:resource="http://purl.org/dc/dcmitype/StillImage" /><dc:title></dc:title></cc:Work></rdf:RDF></metadata><defs
   id="defs37" /><sodipodi:namedview
   pagecolor="#ffffff"
   bordercolor="#666666"
   borderopacity="1"
   objecttolerance="10"
   gridtolerance="10"
   guidetolerance="10"
   inkscape:pageopacity="0"
   inkscape:pageshadow="2"
   inkscape:window-width="1920"
   inkscape:window-height="1017"
   id="namedview35"
   showgrid="false"
   inkscape:zoom="0.72168419"
   inkscape:cx="-296.17609"
   inkscape:cy="215.86067"
   inkscape:window-x="1912"
   inkscape:window-y="-8"
   inkscape:window-maximized="1"
   inkscape:current-layer="Capa_1" />

<g
   id="g4"
   transform="translate(0,-0.23300171)">
</g>
<g
   id="g6"
   transform="translate(0,-0.23300171)">
</g>
<g
   id="g8"
   transform="translate(0,-0.23300171)">
</g>
<g
   id="g10"
   transform="translate(0,-0.23300171)">
</g>
<g
   id="g12"
   transform="translate(0,-0.23300171)">
</g>
<g
   id="g14"
   transform="translate(0,-0.23300171)">
</g>
<g
   id="g16"
   transform="translate(0,-0.23300171)">
</g>
<g
   id="g18"
   transform="translate(0,-0.23300171)">
</g>
<g
   id="g20"
   transform="translate(0,-0.23300171)">
</g>
<g
   id="g22"
   transform="translate(0,-0.23300171)">
</g>
<g
   id="g24"
   transform="translate(0,-0.23300171)">
</g>
<g
   id="g26"
   transform="translate(0,-0.23300171)">
</g>
<g
   id="g28"
   transform="translate(0,-0.23300171)">
</g>
<g
   id="g30"
   transform="translate(0,-0.23300171)">
</g>
<g
   id="g32"
   transform="translate(0,-0.23300171)">
</g>
<path
   id="path2130"
   d="M 221.37442,155.97423 V 21.22534 c 5.77509,0 9.62501,-3.849503 9.62501,-9.625405 0,-5.7753404 -3.84992,-9.6248432 -9.62501,-9.6248432 H 9.624859 C 3.850069,1.9750918 0,5.8245946 0,11.599935 0,17.374734 3.850069,21.22534 9.624859,21.22534 V 155.97423 C 3.850069,155.97423 0,159.82927 0,165.59961 c 0,5.77536 3.850069,9.62486 9.624859,9.62486 h 77.962579 l -19.250019,44.27469 c -1.924732,4.81603 0,10.58805 4.812719,12.51281 4.812732,1.92751 10.587521,0 12.512408,-4.81603 l 22.137414,-51.97538 h 14.43759 l 22.1374,51.97538 c 1.92473,4.81603 7.69997,6.73743 12.51255,4.81603 4.81258,-1.92753 6.73747,-7.70012 4.81258,-12.51281 l -19.25002,-44.27469 h 78.92495 c 5.77494,0 9.62499,-3.85504 9.62499,-9.62486 0,-5.77422 -3.85005,-9.62538 -9.62499,-9.62538 z m -19.24987,0 H 28.874872 V 21.22534 H 202.12455 Z"
   inkscape:connector-curvature="0"
   style="fill:#6288b8;fill-opacity:1;stroke:none;stroke-width:4.38177109;stroke-miterlimit:4;stroke-dasharray:none;stroke-opacity:1"
   inkscape:export-filename="C:\Users\Mickaël\Documents\SVN\Office 1.5\model\sources\office\auth\ico\diap.png"
   inkscape:export-xdpi="95.728584"
   inkscape:export-ydpi="95.728584" /><path
   id="path1642"
   d="m 116.85628,66.417355 c 0,10.53749 -8.55217,19.08965 -19.08966,19.08965 0,10.53749 8.55217,19.089645 19.08966,19.089645 10.53748,0 19.08965,-8.552155 19.08965,-19.089645 0,-10.53749 -8.55217,-19.08965 -19.08965,-19.08965 z m 0,-38.179322 c -39.15288,0 -76.35861,44.364372 -76.35861,57.268972 0,12.90461 37.20573,57.268955 76.35861,57.268955 39.15287,0 76.3586,-44.364345 76.3586,-57.268955 0,-12.9046 -37.20573,-57.268972 -76.3586,-57.268972 z m 0,95.448277 c -21.08452,0 -38.17931,-17.09479 -38.17931,-38.179305 0,-21.08454 17.09479,-38.17932 38.17931,-38.17932 21.08452,0 38.1793,17.09478 38.1793,38.17932 0,21.084515 -17.09478,38.179305 -38.1793,38.179305 z"
   inkscape:connector-curvature="0"
   style="stroke-width:9.54482555;fill:#6288b8;fill-opacity:1" /></svg>